…
> set.seed(2003)
> 
> ## parallel tune grid
> 
> if(PARALLEL){
+   cl <- makePSOCKcluster(10)
+   registerDoParallel(cl)
+ }
> 
> ## Set up preprocessing
> prepped_recipe <- setup_train_recipe(train, encode=F, poly=F, smote_K=0, pca_threshold=0)
> 
> ## Bake recipe
> bake(prepped_recipe, new_data=train)
# A tibble: 61,878 × 95
      id feat_1 feat_2 feat_3  feat_4 feat_5 feat_6 feat_7 feat_8 feat_9 feat_10
   <dbl>  <dbl>  <dbl>  <dbl>   <dbl> <fct>  <fct>   <dbl>  <dbl>  <dbl>   <dbl>
 1 -1.73  0.402 -0.210 -0.307 -0.279  0      0      -0.188 -0.294 -0.291  -0.244
 2 -1.73 -0.254 -0.210 -0.307 -0.279  0      0      -0.188  0.150 -0.291  -0.244
 3 -1.73 -0.254 -0.210 -0.307 -0.279  0      0      -0.188  0.150 -0.291  -0.244
 4 -1.73  0.402 -0.210 -0.307  0.0792 6      1       4.67  -0.294 -0.291   0.679
 5 -1.73 -0.254 -0.210 -0.307 -0.279  0      0      -0.188 -0.294 -0.291  -0.244
 6 -1.73  1.06   0.589 -0.307 -0.279  7      0      -0.188 -0.294 -0.291  -0.244
 7 -1.73  1.06  -0.210 -0.307 -0.279  0      0      -0.188  0.593 -0.291   0.679
 8 -1.73 -0.254 -0.210 -0.307 -0.279  0      0      -0.188 -0.294 -0.291  -0.244
 9 -1.73 -0.254 -0.210 -0.307 -0.279  0      0      -0.188  1.48  -0.291  -0.244
10 -1.73 -0.254 -0.210 -0.307 -0.279  0      0       0.783 -0.294 -0.291  -0.244
# ℹ 61,868 more rows
# ℹ 84 more variables: feat_11 <dbl>, feat_12 <fct>, feat_13 <dbl>,
#   feat_14 <dbl>, feat_15 <dbl>, feat_16 <dbl>, feat_17 <dbl>, feat_18 <dbl>,
#   feat_19 <dbl>, feat_20 <dbl>, feat_21 <fct>, feat_22 <fct>, feat_23 <fct>,
#   feat_24 <dbl>, feat_25 <dbl>, feat_26 <dbl>, feat_27 <dbl>, feat_28 <fct>,
#   feat_29 <dbl>, feat_30 <dbl>, feat_31 <dbl>, feat_32 <dbl>, feat_33 <fct>,
#   feat_34 <dbl>, feat_35 <dbl>, feat_36 <dbl>, feat_37 <fct>, …
> bake(prepped_recipe, new_data=test)
# A tibble: 144,368 × 94
      id feat_1 feat_2 feat_3  feat_4 feat_5 feat_6 feat_7 feat_8 feat_9 feat_10
   <dbl>  <dbl>  <dbl>  <dbl>   <dbl> <fct>  <fct>   <dbl>  <dbl>  <dbl>   <dbl>
 1 -1.73 -0.254 -0.210 -0.307 -0.279  0      0      -0.188 -0.294 -0.291   2.53 
 2 -1.73  1.06   1.39   4.46   5.46   0      0      -0.188 -0.294 -0.291  -0.244
 3 -1.73 -0.254  0.589  3.78   0.0792 0      0      -0.188 -0.294 -0.291  -0.244
 4 -1.73 -0.254 -0.210 -0.307  0.0792 0      0      -0.188 -0.294 -0.291  -0.244
 5 -1.73  0.402 -0.210 -0.307  0.0792 0      0       0.783  0.593 -0.291   2.53 
 6 -1.73 -0.254 -0.210 -0.307 -0.279  0      0      -0.188 -0.294  4.60   -0.244
 7 -1.73 -0.254 -0.210 -0.307 -0.279  0      0      -0.188 -0.294 -0.291   4.37 
 8 -1.73  1.06  -0.210 -0.307 -0.279  0      0      -0.188 -0.294 -0.291  -0.244
 9 -1.73 -0.254 -0.210 -0.307 -0.279  1      0      -0.188 -0.294 -0.291  -0.244
10 -1.73 -0.254 -0.210 -0.307 -0.279  0      0      -0.188 -0.294  2.59   -0.244
# ℹ 144,358 more rows
# ℹ 83 more variables: feat_11 <dbl>, feat_12 <fct>, feat_13 <dbl>,
#   feat_14 <dbl>, feat_15 <dbl>, feat_16 <dbl>, feat_17 <dbl>, feat_18 <dbl>,
#   feat_19 <dbl>, feat_20 <dbl>, feat_21 <fct>, feat_22 <fct>, feat_23 <fct>,
#   feat_24 <dbl>, feat_25 <dbl>, feat_26 <dbl>, feat_27 <dbl>, feat_28 <fct>,
#   feat_29 <dbl>, feat_30 <dbl>, feat_31 <dbl>, feat_32 <dbl>, feat_33 <fct>,
#   feat_34 <dbl>, feat_35 <dbl>, feat_36 <dbl>, feat_37 <fct>, …
…
