…
> set.seed(2003)
> 
> ## parallel tune grid
> 
> if(PARALLEL){
+   cl <- makePSOCKcluster(6)
+   registerDoParallel(cl)
+ }
> 
> ## Set up preprocessing
> prepped_recipe <- setup_train_recipe(train, encode=F, poly=F, smote_K=0, pca_threshold=0)
> 
> ## Bake recipe
> bake(prepped_recipe, new_data=train)
# A tibble: 61,878 × 95
      id feat_1 feat_2 feat_3 feat_4 feat_5 feat_6 feat_7 feat_8 feat_9 feat_10
   <dbl>  <dbl>  <dbl>  <dbl>  <dbl>  <dbl>  <dbl>  <dbl>  <dbl>  <dbl>   <dbl>
 1     1      1      0      0      0      0      0      0      0      0       0
 2     2      0      0      0      0      0      0      0      1      0       0
 3     3      0      0      0      0      0      0      0      1      0       0
 4     4      1      0      0      1      6      1      5      0      0       1
 5     5      0      0      0      0      0      0      0      0      0       0
 6     6      2      1      0      0      7      0      0      0      0       0
 7     7      2      0      0      0      0      0      0      2      0       1
 8     8      0      0      0      0      0      0      0      0      0       0
 9     9      0      0      0      0      0      0      0      4      0       0
10    10      0      0      0      0      0      0      1      0      0       0
# ℹ 61,868 more rows
# ℹ 84 more variables: feat_11 <dbl>, feat_12 <dbl>, feat_13 <dbl>,
#   feat_14 <dbl>, feat_15 <dbl>, feat_16 <dbl>, feat_17 <dbl>, feat_18 <dbl>,
#   feat_19 <dbl>, feat_20 <dbl>, feat_21 <dbl>, feat_22 <dbl>, feat_23 <dbl>,
#   feat_24 <dbl>, feat_25 <dbl>, feat_26 <dbl>, feat_27 <dbl>, feat_28 <dbl>,
#   feat_29 <dbl>, feat_30 <dbl>, feat_31 <dbl>, feat_32 <dbl>, feat_33 <dbl>,
#   feat_34 <dbl>, feat_35 <dbl>, feat_36 <dbl>, feat_37 <dbl>, …
> bake(prepped_recipe, new_data=test)
# A tibble: 144,368 × 94
      id feat_1 feat_2 feat_3 feat_4 feat_5 feat_6 feat_7 feat_8 feat_9 feat_10
   <dbl>  <dbl>  <dbl>  <dbl>  <dbl>  <dbl>  <dbl>  <dbl>  <dbl>  <dbl>   <dbl>
 1     1      0      0      0      0      0      0      0      0      0       3
 2     2      2      2     14     16      0      0      0      0      0       0
 3     3      0      1     12      1      0      0      0      0      0       0
 4     4      0      0      0      1      0      0      0      0      0       0
 5     5      1      0      0      1      0      0      1      2      0       3
 6     6      0      0      0      0      0      0      0      0     17       0
 7     7      0      0      0      0      0      0      0      0      0       5
 8     8      2      0      0      0      0      0      0      0      0       0
 9     9      0      0      0      0      1      0      0      0      0       0
10    10      0      0      0      0      0      0      0      0     10       0
# ℹ 144,358 more rows
# ℹ 83 more variables: feat_11 <dbl>, feat_12 <dbl>, feat_13 <dbl>,
#   feat_14 <dbl>, feat_15 <dbl>, feat_16 <dbl>, feat_17 <dbl>, feat_18 <dbl>,
#   feat_19 <dbl>, feat_20 <dbl>, feat_21 <dbl>, feat_22 <dbl>, feat_23 <dbl>,
#   feat_24 <dbl>, feat_25 <dbl>, feat_26 <dbl>, feat_27 <dbl>, feat_28 <dbl>,
#   feat_29 <dbl>, feat_30 <dbl>, feat_31 <dbl>, feat_32 <dbl>, feat_33 <dbl>,
#   feat_34 <dbl>, feat_35 <dbl>, feat_36 <dbl>, feat_37 <dbl>, …
…
