…
> ## parallel tune grid
> 
> if(PARALLEL){
+   cl <- makePSOCKcluster(8)
+   registerDoParallel(cl)
+ }
> 
> ## Set up preprocessing
> prepped_recipe <- setup_train_recipe(train, encode=T, poly=F, smote_K=5, pca_threshold=0.85)
Warning message:
Column(s) have zero variance so scaling cannot be used: `feat_5_new`, `feat_6_new`, `feat_10_new`, `feat_12_new`, `feat_21_new`, `feat_22_new`, `feat_23_new`, `feat_28_new`, `feat_33_new`, `feat_37_new`, `feat_44_new`, `feat_51_new`, `feat_55_new`, `feat_61_new`, `feat_65_new`, `feat_77_new`, `feat_79_new`, `feat_81_new`, `feat_82_new` and `feat_92_new`. Consider using `step_zv()` to remove those columns before normalizing 
> 
> ## Bake recipe
> bake(prepped_recipe, new_data=train)
# A tibble: 61,878 × 88
   target    PC01    PC02   PC03    PC04   PC05     PC06    PC07    PC08    PC09
   <fct>    <dbl>   <dbl>  <dbl>   <dbl>  <dbl>    <dbl>   <dbl>   <dbl>   <dbl>
 1 Class_1 -0.181 -0.117   0.601 -0.655  -0.263  1.09    -0.617  -0.604   0.0372
 2 Class_1 -1.55   0.954   0.871 -0.103  -0.882  0.0512   0.386  -0.195  -0.132 
 3 Class_1 -1.01   0.669   1.07  -0.340  -0.129  0.0105   0.0979 -1.06   -0.286 
 4 Class_1 25.6   30.7    -3.55   2.83    2.36   1.17     0.930  -0.110   1.75  
 5 Class_1 -0.418  0.0423  1.54  -1.37    0.302  0.0427   0.695  -1.54   -2.38  
 6 Class_1  4.30   1.60    1.63  -3.11    0.810  0.461    0.875  -1.79   -2.52  
 7 Class_1  0.163  0.561   0.756 -0.637   0.585  0.418    0.619   0.0249 -0.570 
 8 Class_1 -1.63   0.867   0.496 -0.0692 -0.161  0.00173  0.103  -0.207  -0.273 
 9 Class_1  0.950 -0.709   1.60  -1.82   -0.473  1.44     0.456   0.0287 -0.129 
10 Class_1 -0.557  0.243   1.14  -0.144  -0.672 -0.230    0.0274 -0.161  -0.292 
# ℹ 61,868 more rows
# ℹ 78 more variables: PC10 <dbl>, PC11 <dbl>, PC12 <dbl>, PC13 <dbl>,
#   PC14 <dbl>, PC15 <dbl>, PC16 <dbl>, PC17 <dbl>, PC18 <dbl>, PC19 <dbl>,
#   PC20 <dbl>, PC21 <dbl>, PC22 <dbl>, PC23 <dbl>, PC24 <dbl>, PC25 <dbl>,
#   PC26 <dbl>, PC27 <dbl>, PC28 <dbl>, PC29 <dbl>, PC30 <dbl>, PC31 <dbl>,
#   PC32 <dbl>, PC33 <dbl>, PC34 <dbl>, PC35 <dbl>, PC36 <dbl>, PC37 <dbl>,
#   PC38 <dbl>, PC39 <dbl>, PC40 <dbl>, PC41 <dbl>, PC42 <dbl>, PC43 <dbl>, …
> bake(prepped_recipe, new_data=test)
# A tibble: 144,368 × 87
      PC01   PC02   PC03     PC04    PC05    PC06    PC07    PC08    PC09
     <dbl>  <dbl>  <dbl>    <dbl>   <dbl>   <dbl>   <dbl>   <dbl>   <dbl>
 1 -1.06    0.318  0.730 -0.274    2.83   -3.98   -0.930  -1.40   -0.596 
 2  2.61   -1.96  -5.87   1.75    -0.813   3.11    0.132  -0.466  -2.08  
 3  1.43   -2.08  -5.81   2.08    -1.81    2.12   -1.34   -0.914  -0.346 
 4 -0.0506 -0.630 -0.893 -0.493    3.62   -0.667   0.972   1.74    3.25  
 5  0.971   1.08   2.28  -0.888   -1.72   -0.651   0.243   0.198   0.0435
 6 -0.626   1.36   1.96  -0.416   -0.554  -0.644  -1.84   -0.690  -1.46  
 7  1.67   -1.80  -0.629  0.741   -0.0915 -2.46    1.53   -0.156   0.872 
 8 -1.72    0.876  0.910 -0.0659   0.894  -0.502  -0.468   0.368  -0.723 
 9 -1.83    0.969  0.591  0.00665  0.563  -1.01   -0.0546 -0.0871 -0.105 
10 -1.62    1.13   1.13  -0.161   -0.824  -0.0548 -0.514  -0.575  -0.609 
# ℹ 144,358 more rows
# ℹ 78 more variables: PC10 <dbl>, PC11 <dbl>, PC12 <dbl>, PC13 <dbl>,
#   PC14 <dbl>, PC15 <dbl>, PC16 <dbl>, PC17 <dbl>, PC18 <dbl>, PC19 <dbl>,
#   PC20 <dbl>, PC21 <dbl>, PC22 <dbl>, PC23 <dbl>, PC24 <dbl>, PC25 <dbl>,
#   PC26 <dbl>, PC27 <dbl>, PC28 <dbl>, PC29 <dbl>, PC30 <dbl>, PC31 <dbl>,
#   PC32 <dbl>, PC33 <dbl>, PC34 <dbl>, PC35 <dbl>, PC36 <dbl>, PC37 <dbl>,
#   PC38 <dbl>, PC39 <dbl>, PC40 <dbl>, PC41 <dbl>, PC42 <dbl>, PC43 <dbl>, …
…
